id;address_line_1;address_line_2;postcode
1;catastrophe aha adorable;hmph flashy linguist;misty
2;plop faithfully;correctly;shallow times
3;scruple;crush live panpipe;decoder
4;street amid;toward urban;willing romance old-fashioned
5;round;inasmuch consequently;vacantly aha enforce
6;ouch nor;lined sprinkles unlucky;revascularization fan individualise
7;yippee consequently;international;intensely slack rutabaga
8;unethically oof;via;throb
9;eek high-level;rigidly otter;fake
10;discontinue photo trafficker;floor frightfully concerning;how viciously hull
